E:\Information System\University of Indonesia\Extra - 1\Pemrograman Skala Perusahaan\Tutor 4\PSPTutorial04\src\main\java\com\example\controller\StudentController.java
E:\Information System\University of Indonesia\Extra - 1\Pemrograman Skala Perusahaan\Tutor 4\PSPTutorial04\src\main\java\com\example\service\StudentService.java
E:\Information System\University of Indonesia\Extra - 1\Pemrograman Skala Perusahaan\Tutor 4\PSPTutorial04\src\main\java\com\example\dao\StudentMapper.java
E:\Information System\University of Indonesia\Extra - 1\Pemrograman Skala Perusahaan\Tutor 4\PSPTutorial04\src\main\java\com\example\PdbTutorial04Application.java
E:\Information System\University of Indonesia\Extra - 1\Pemrograman Skala Perusahaan\Tutor 4\PSPTutorial04\src\main\java\com\example\service\StudentServiceDatabase.java
E:\Information System\University of Indonesia\Extra - 1\Pemrograman Skala Perusahaan\Tutor 4\PSPTutorial04\src\main\java\com\example\model\StudentModel.java
